@startuml
class at.itkollegimst.muernseer.pos1makro.test2.buchhandlung.application.internal.commandservices.BuchGedrucktCommandService {
- BestellungRepository bestellungRepository
+ void buchWurdeGedruckt(String)
}
interface at.itkollegimst.muernseer.pos1makro.test2.buchhandlung.infastructure.brokers.rabbitmq.BuchBestelltEventSource {
~ String GEDRUCKT
~ SubscribableChannel buchDrucken()
~ MessageChannel buchBestellung()
}
class at.itkollegimst.muernseer.pos1makro.test2.buchhandlung.domain.model.commands.BuchBestelltCommand {
- Status status
- String bestellid
+ Status getStatus()
+ void setStatus(Status)
+ String getBestellid()
+ void setBestellid(String)
}
class at.itkollegimst.muernseer.pos1makro.test2.shareddomain.events.BuchGedrucktEventData {
- String bestellid
+ String getBestellid()
+ void setBestellid(String)
}
class at.itkollegimst.muernseer.pos1makro.test2.buchhandlung.interfaces.events.BuchGedrucktEventHandler {
- BuchGedrucktCommandService buchGedrucktCommandService
+ void reciveEvent(BuchGedrucktEvent)
}
class at.itkollegimst.muernseer.pos1makro.test2.buchhandlung.domain.model.aggregates.Bestellung {
- Long id
- Status status
- BestellId bestellId
- void addDomainEvent(Object)
+ Status getStatus()
+ void setStatus(Status)
+ String getBestellId()
+ void setBestellId(BestellId)
}
class at.itkollegimst.muernseer.pos1makro.test2.buchhandlung.domain.model.aggregates.BestellId {
- String bestellid
+ String getBestellid()
+ void setBestellid(String)
}
class at.itkollegimst.muernseer.pos1makro.test2.shareddomain.events.BuchGedrucktEvent {
- BuchGedrucktEventData buchGedrucktEventData
+ BuchGedrucktEventData getBuchGedrucktEventData()
+ void setBuchBestelltEventData(BuchGedrucktEventData)
}
class at.itkollegimst.muernseer.pos1makro.test2.buchhandlung.application.internal.outboundservices.BuchBestelltEventPublisherService {
- BuchBestelltEventSource buchBestelltEventSource
+ void handleBuchBestelltEvent(BuchBestelltEvent)
}
interface at.itkollegimst.muernseer.pos1makro.test2.buchhandlung.infastructure.repositories.jpa.BestellungRepository {
~ void updateStatus(Status,BestellId)
~ List<Bestellung> findAll()
}
class at.itkollegimst.muernseer.pos1makro.test2.buchhandlung.interfaces.rest.BuchBestelltController {
- BuchBestellungCommandService buchBestellungCommandService
+ List<Bestellung> getBestellung()
+ BestellId bestellen()
}
class at.itkollegimst.muernseer.pos1makro.test2.buchhandlung.application.internal.commandservices.BuchBestellungCommandService {
- BestellungRepository bestellungRepository
+ BestellId bestellen(BuchBestelltCommand)
+ List<Bestellung> listAll()
}
class at.itkollegimst.muernseer.pos1makro.test2.shareddomain.events.BuchBestelltEvent {
- BuchBestelltEventData buchBestelltEventData
+ BuchBestelltEventData getBuchBestelltEventData()
+ void setBuchBestelltEventData(BuchBestelltEventData)
}
class at.itkollegimst.muernseer.pos1makro.test2.buchhandlung.BuchhandlungApplication {
+ {static} void main(String[])
}
class at.itkollegimst.muernseer.pos1makro.test2.shareddomain.events.BuchBestelltEventData {
- String bestellid
+ String getBestellid()
+ void setBestellid(String)
}


org.springframework.data.domain.AbstractAggregateRoot <|-- at.itkollegimst.muernseer.pos1makro.test2.buchhandlung.domain.model.aggregates.Bestellung
java.io.Serializable <|.. at.itkollegimst.muernseer.pos1makro.test2.buchhandlung.domain.model.aggregates.BestellId
org.springframework.data.jpa.repository.JpaRepository <|-- at.itkollegimst.muernseer.pos1makro.test2.buchhandlung.infastructure.repositories.jpa.BestellungRepository
@enduml