<?xml version="1.0" encoding="UTF-8" standalone="no"?><svg xmlns="http://www.w3.org/2000/svg" xmlns:xlink="http://www.w3.org/1999/xlink" contentScriptType="application/ecmascript" contentStyleType="text/css" height="564px" preserveAspectRatio="none" style="width:6858px;height:564px;" version="1.1" viewBox="0 0 6858 564" width="6858px" zoomAndPan="magnify"><defs><filter height="300%" id="f1qn21xe4yjvk0" width="300%" x="-1" y="-1"><feGaussianBlur result="blurOut" stdDeviation="3.0"/><feColorMatrix in="blurOut" result="blurOut2" type="matrix" values="0 0 0 0 0 0 0 0 0 0 0 0 0 0 0 0 0 0 .4 0"/><feOffset dx="6.0" dy="6.0" in="blurOut2" result="blurOut3"/><feBlend in="SourceGraphic" in2="blurOut3" mode="normal"/></filter></defs><g><!--MD5=[2161a0d7a7ba2a6cd6acd46240c9b092]
cluster at.itkollegimst.muernseer.pos1makro.test2.druckerei.infastructure.brokers.rabbitmq--><polygon fill="#FFFFFF" filter="url(#f1qn21xe4yjvk0)" points="846,9,1741.5,9,1752,44.4141,1756.5,44.4141,1756.5,222,846,222,846,9" style="stroke:#000000;stroke-width:2.25;"/><line style="stroke:#000000;stroke-width:2.25;" x1="846" x2="1752" y1="44.4141" y2="44.4141"/><text fill="#000000" font-family="sans-serif" font-size="21" font-weight="bold" lengthAdjust="spacing" textLength="886.5" x="852" y="33.7998">at.itkollegimst.muernseer.pos1makro.test2.druckerei.infastructure.brokers.rabbitmq</text><!--MD5=[8329b8343a6d1874f32150e32dec10b5]
cluster at.itkollegimst.muernseer.pos1makro.test2.shareddomain.events--><polygon fill="#FFFFFF" filter="url(#f1qn21xe4yjvk0)" points="24,9,717,9,727.5,44.4141,810,44.4141,810,512.25,24,512.25,24,9" style="stroke:#000000;stroke-width:2.25;"/><line style="stroke:#000000;stroke-width:2.25;" x1="24" x2="727.5" y1="44.4141" y2="44.4141"/><text fill="#000000" font-family="sans-serif" font-size="21" font-weight="bold" lengthAdjust="spacing" textLength="684" x="30" y="33.7998">at.itkollegimst.muernseer.pos1makro.test2.shareddomain.events</text><!--MD5=[f4df8328900bf573f20dc4db3ee7fe31]
cluster at.itkollegimst.muernseer.pos1makro.test2.druckerei--><polygon fill="#FFFFFF" filter="url(#f1qn21xe4yjvk0)" points="1792.5,30,2358,30,2368.5,65.4141,2373,65.4141,2373,201,1792.5,201,1792.5,30" style="stroke:#000000;stroke-width:2.25;"/><line style="stroke:#000000;stroke-width:2.25;" x1="1792.5" x2="2368.5" y1="65.4141" y2="65.4141"/><text fill="#000000" font-family="sans-serif" font-size="21" font-weight="bold" lengthAdjust="spacing" textLength="556.5" x="1798.5" y="54.7998">at.itkollegimst.muernseer.pos1makro.test2.druckerei</text><!--MD5=[c835ebd9f458fb902826c1aee5029da9]
cluster at.itkollegimst.muernseer.pos1makro.test2.druckerei.application.internal.outboundservices--><polygon fill="#FFFFFF" filter="url(#f1qn21xe4yjvk0)" points="2409,19.5,3382.5,19.5,3393,54.9141,3397.5,54.9141,3397.5,211.5,2409,211.5,2409,19.5" style="stroke:#000000;stroke-width:2.25;"/><line style="stroke:#000000;stroke-width:2.25;" x1="2409" x2="3393" y1="54.9141" y2="54.9141"/><text fill="#000000" font-family="sans-serif" font-size="21" font-weight="bold" lengthAdjust="spacing" textLength="964.5" x="2415" y="44.2998">at.itkollegimst.muernseer.pos1makro.test2.druckerei.application.internal.outboundservices</text><!--MD5=[09deb66fe065cc2979d92d409d7252fd]
cluster at.itkollegimst.muernseer.pos1makro.test2.druckerei.interfaces.events--><polygon fill="#FFFFFF" filter="url(#f1qn21xe4yjvk0)" points="3433.5,19.5,4191,19.5,4201.5,54.9141,4206,54.9141,4206,211.5,3433.5,211.5,3433.5,19.5" style="stroke:#000000;stroke-width:2.25;"/><line style="stroke:#000000;stroke-width:2.25;" x1="3433.5" x2="4201.5" y1="54.9141" y2="54.9141"/><text fill="#000000" font-family="sans-serif" font-size="21" font-weight="bold" lengthAdjust="spacing" textLength="748.5" x="3439.5" y="44.2998">at.itkollegimst.muernseer.pos1makro.test2.druckerei.interfaces.events</text><!--MD5=[2387a28335751c68a8652da1dab340e0]
cluster at.itkollegimst.muernseer.pos1makro.test2.druckerei.application.internal.commandservices--><polygon fill="#FFFFFF" filter="url(#f1qn21xe4yjvk0)" points="4242,19.5,5214,19.5,5224.5,54.9141,5229,54.9141,5229,211.5,4242,211.5,4242,19.5" style="stroke:#000000;stroke-width:2.25;"/><line style="stroke:#000000;stroke-width:2.25;" x1="4242" x2="5224.5" y1="54.9141" y2="54.9141"/><text fill="#000000" font-family="sans-serif" font-size="21" font-weight="bold" lengthAdjust="spacing" textLength="963" x="4248" y="44.2998">at.itkollegimst.muernseer.pos1makro.test2.druckerei.application.internal.commandservices</text><!--MD5=[8aee57688f3c944d0fa22d2bdd583950]
cluster at.itkollegimst.muernseer.pos1makro.test2.druckerei.infastructure.repositories.jpa--><polygon fill="#FFFFFF" filter="url(#f1qn21xe4yjvk0)" points="5041.5,330.75,5922,330.75,5932.5,366.1641,5937,366.1641,5937,480.75,5041.5,480.75,5041.5,330.75" style="stroke:#000000;stroke-width:2.25;"/><line style="stroke:#000000;stroke-width:2.25;" x1="5041.5" x2="5932.5" y1="366.1641" y2="366.1641"/><text fill="#000000" font-family="sans-serif" font-size="21" font-weight="bold" lengthAdjust="spacing" textLength="871.5" x="5047.5" y="355.5498">at.itkollegimst.muernseer.pos1makro.test2.druckerei.infastructure.repositories.jpa</text><!--MD5=[61abe7f3fa4ccc8f01726e481d289bf9]
cluster at.itkollegimst.muernseer.pos1makro.test2.druckerei.domain.model.aggregates--><polygon fill="#FFFFFF" filter="url(#f1qn21xe4yjvk0)" points="5973,258,6817.5,258,6828,293.4141,6832.5,293.4141,6832.5,553.5,5973,553.5,5973,258" style="stroke:#000000;stroke-width:2.25;"/><line style="stroke:#000000;stroke-width:2.25;" x1="5973" x2="6828" y1="293.4141" y2="293.4141"/><text fill="#000000" font-family="sans-serif" font-size="21" font-weight="bold" lengthAdjust="spacing" textLength="835.5" x="5979" y="282.7998">at.itkollegimst.muernseer.pos1makro.test2.druckerei.domain.model.aggregates</text><!--MD5=[cd09a31e374d3ba35fd45e1567298dba]
cluster org.springframework.data.jpa.repository--><polygon fill="#FFFFFF" filter="url(#f1qn21xe4yjvk0)" points="5265,40.5,5697,40.5,5707.5,75.9141,5712,75.9141,5712,190.5,5265,190.5,5265,40.5" style="stroke:#000000;stroke-width:2.25;"/><line style="stroke:#000000;stroke-width:2.25;" x1="5265" x2="5707.5" y1="75.9141" y2="75.9141"/><text fill="#000000" font-family="sans-serif" font-size="21" font-weight="bold" lengthAdjust="spacing" textLength="423" x="5271" y="65.2998">org.springframework.data.jpa.repository</text><!--MD5=[399b68e8a9a77cf1bf61376e5f460ed4]
cluster org.springframework.data.domain--><polygon fill="#FFFFFF" filter="url(#f1qn21xe4yjvk0)" points="6171,40.5,6534,40.5,6544.5,75.9141,6549,75.9141,6549,190.5,6171,190.5,6171,40.5" style="stroke:#000000;stroke-width:2.25;"/><line style="stroke:#000000;stroke-width:2.25;" x1="6171" x2="6544.5" y1="75.9141" y2="75.9141"/><text fill="#000000" font-family="sans-serif" font-size="21" font-weight="bold" lengthAdjust="spacing" textLength="354" x="6177" y="65.2998">org.springframework.data.domain</text><!--MD5=[66676db8e6ccd713114878002ed24ac5]
class at.itkollegimst.muernseer.pos1makro.test2.druckerei.infastructure.brokers.rabbitmq.BuchBestelltEventBinding--><rect codeLine="1" fill="#FEFECE" filter="url(#f1qn21xe4yjvk0)" height="134.2617" id="at.itkollegimst.muernseer.pos1makro.test2.druckerei.infastructure.brokers.rabbitmq.BuchBestelltEventBinding" style="stroke:#A80036;stroke-width:2.25;" width="319.5" x="1140.75" y="63"/><ellipse cx="1190.25" cy="87" fill="#B4A7E5" rx="16.5" ry="16.5" style="stroke:#A80036;stroke-width:1.5;"/><path d="M1191.75,82.5 L1191.75,91.5 L1194.75,91.5 L1195.4766,91.5 L1196.25,92.4375 L1196.25,93 L1196.25,93.5625 L1195.4766,94.5 L1194.75,94.5 L1185.75,94.5 L1185.0234,94.5 L1184.25,93.5625 L1184.25,93 L1184.25,92.4375 L1185.0234,91.5 L1185.75,91.5 L1188.75,91.5 L1188.75,82.5 L1185.75,82.5 L1185.0234,82.5 L1184.25,81.5625 L1184.25,81 L1184.25,80.4375 L1185.0234,79.5 L1185.75,79.5 L1194.75,79.5 L1195.4766,79.5 L1196.25,80.4375 L1196.25,81 L1196.25,81.5625 L1195.4766,82.5 L1194.75,82.5 L1191.75,82.5 Z " fill="#000000"/><text fill="#000000" font-family="sans-serif" font-size="18" font-style="italic" lengthAdjust="spacing" textLength="211.5" x="1217.25" y="94.3652">BuchBestelltEventBinding</text><line style="stroke:#A80036;stroke-width:2.25;" x1="1142.25" x2="1458.75" y1="111" y2="111"/><polygon fill="none" points="1157.25,121.5,1151.25,130.5,1163.25,130.5" style="stroke:#1963A0;stroke-width:1.5;"/><text fill="#000000" font-family="sans-serif" font-size="16.5" lengthAdjust="spacing" textLength="145.5" x="1170.75" y="134.1284">String BESTELLUNG</text><line style="stroke:#A80036;stroke-width:2.25;" x1="1142.25" x2="1458.75" y1="143.7539" y2="143.7539"/><polygon fill="#4177AF" points="1157.25,154.2539,1151.25,163.2539,1163.25,163.2539" style="stroke:#1963A0;stroke-width:1.5;"/><text fill="#000000" font-family="sans-serif" font-size="16.5" lengthAdjust="spacing" textLength="280.5" x="1170.75" y="166.8823">SubscribableChannel buchBestellung()</text><polygon fill="#4177AF" points="1157.25,175.0078,1151.25,184.0078,1163.25,184.0078" style="stroke:#1963A0;stroke-width:1.5;"/><text fill="#000000" font-family="sans-serif" font-size="16.5" lengthAdjust="spacing" textLength="219" x="1170.75" y="187.6362">MessageChannel buchDruck()</text><!--MD5=[c8a35031d01e52e365b671388dff68f3]
class at.itkollegimst.muernseer.pos1makro.test2.shareddomain.events.BuchBestelltEvent--><rect codeLine="6" fill="#FEFECE" filter="url(#f1qn21xe4yjvk0)" height="134.2617" id="at.itkollegimst.muernseer.pos1makro.test2.shareddomain.events.BuchBestelltEvent" style="stroke:#A80036;stroke-width:2.25;" width="435" x="48" y="63"/><ellipse cx="184.875" cy="87" fill="#ADD1B2" rx="16.5" ry="16.5" style="stroke:#A80036;stroke-width:1.5;"/><path d="M187.875,81.75 Q188.1797,81 188.5313,80.625 Q188.8828,80.25 189.2813,80.25 Q189.9844,80.25 190.4297,80.6719 Q190.875,81.0938 190.875,82.0781 L190.875,84.4219 Q190.875,85.4063 190.4531,85.8281 Q190.0313,86.25 189.375,86.25 Q188.7891,86.25 188.4141,85.9922 Q188.0391,85.7344 187.875,85.0547 Q187.8047,84.5859 187.5469,84.3281 Q187.0781,83.8359 186.2344,83.5547 Q185.3906,83.25 184.5469,83.25 Q183.4922,83.25 182.6016,83.6719 Q181.7344,84.0938 181.0547,85.0313 Q180.375,85.9688 180.375,87.2578 L180.375,88.6406 Q180.375,90.1875 181.6406,91.2188 Q182.9063,92.25 185.1563,92.25 Q186.4922,92.25 187.4297,91.9453 Q187.9688,91.7813 188.5781,91.2422 Q188.9766,90.9375 189.1875,90.8438 Q189.3984,90.75 189.6563,90.75 Q190.1484,90.75 190.5,91.1484 Q190.875,91.5234 190.875,92.0625 Q190.875,92.5781 190.3594,93.1875 Q189.6094,94.0781 188.4141,94.5703 Q186.8438,95.25 184.9219,95.25 Q182.6719,95.25 180.8672,94.3594 Q179.4141,93.6563 178.3828,92.1328 Q177.375,90.6094 177.375,88.8047 L177.375,87.1641 Q177.375,85.2891 178.2656,83.6484 Q179.1797,82.0078 180.75,81.1406 Q182.3438,80.25 184.125,80.25 Q185.2031,80.25 186.1406,80.625 Q187.0781,81 187.875,81.75 Z " fill="#000000"/><text fill="#000000" font-family="sans-serif" font-size="18" lengthAdjust="spacing" textLength="148.5" x="215.625" y="94.3652">BuchBestelltEvent</text><line style="stroke:#A80036;stroke-width:2.25;" x1="49.5" x2="481.5" y1="111" y2="111"/><rect fill="none" height="9" style="stroke:#C82930;stroke-width:1.5;" width="9" x="60" y="123"/><text fill="#000000" font-family="sans-serif" font-size="16.5" lengthAdjust="spacing" textLength="330" x="78" y="134.1284">BuchBestelltEventData buchBestelltEventData</text><line style="stroke:#A80036;stroke-width:2.25;" x1="49.5" x2="481.5" y1="143.7539" y2="143.7539"/><ellipse cx="64.5" cy="160.2539" fill="#84BE84" rx="4.5" ry="4.5" style="stroke:#038048;stroke-width:1.5;"/><text fill="#000000" font-family="sans-serif" font-size="16.5" lengthAdjust="spacing" textLength="366" x="78" y="166.8823">BuchBestelltEventData getBuchBestelltEventData()</text><ellipse cx="64.5" cy="181.0078" fill="#84BE84" rx="4.5" ry="4.5" style="stroke:#038048;stroke-width:1.5;"/><text fill="#000000" font-family="sans-serif" font-size="16.5" lengthAdjust="spacing" textLength="396" x="78" y="187.6362">void setBuchBestelltEventData(BuchBestelltEventData)</text><!--MD5=[435ab94398a0e8f391b419c73df772db]
class at.itkollegimst.muernseer.pos1makro.test2.shareddomain.events.BuchGedrucktEventData--><rect codeLine="28" fill="#FEFECE" filter="url(#f1qn21xe4yjvk0)" height="134.2617" id="at.itkollegimst.muernseer.pos1makro.test2.shareddomain.events.BuchGedrucktEventData" style="stroke:#A80036;stroke-width:2.25;" width="247.5" x="536.25" y="63"/><ellipse cx="558.75" cy="87" fill="#ADD1B2" rx="16.5" ry="16.5" style="stroke:#A80036;stroke-width:1.5;"/><path d="M561.75,81.75 Q562.0547,81 562.4063,80.625 Q562.7578,80.25 563.1563,80.25 Q563.8594,80.25 564.3047,80.6719 Q564.75,81.0938 564.75,82.0781 L564.75,84.4219 Q564.75,85.4063 564.3281,85.8281 Q563.9063,86.25 563.25,86.25 Q562.6641,86.25 562.2891,85.9922 Q561.9141,85.7344 561.75,85.0547 Q561.6797,84.5859 561.4219,84.3281 Q560.9531,83.8359 560.1094,83.5547 Q559.2656,83.25 558.4219,83.25 Q557.3672,83.25 556.4766,83.6719 Q555.6094,84.0938 554.9297,85.0313 Q554.25,85.9688 554.25,87.2578 L554.25,88.6406 Q554.25,90.1875 555.5156,91.2188 Q556.7813,92.25 559.0313,92.25 Q560.3672,92.25 561.3047,91.9453 Q561.8438,91.7813 562.4531,91.2422 Q562.8516,90.9375 563.0625,90.8438 Q563.2734,90.75 563.5313,90.75 Q564.0234,90.75 564.375,91.1484 Q564.75,91.5234 564.75,92.0625 Q564.75,92.5781 564.2344,93.1875 Q563.4844,94.0781 562.2891,94.5703 Q560.7188,95.25 558.7969,95.25 Q556.5469,95.25 554.7422,94.3594 Q553.2891,93.6563 552.2578,92.1328 Q551.25,90.6094 551.25,88.8047 L551.25,87.1641 Q551.25,85.2891 552.1406,83.6484 Q553.0547,82.0078 554.625,81.1406 Q556.2188,80.25 558,80.25 Q559.0781,80.25 560.0156,80.625 Q560.9531,81 561.75,81.75 Z " fill="#000000"/><text fill="#000000" font-family="sans-serif" font-size="18" lengthAdjust="spacing" textLength="199.5" x="579.75" y="94.3652">BuchGedrucktEventData</text><line style="stroke:#A80036;stroke-width:2.25;" x1="537.75" x2="782.25" y1="111" y2="111"/><rect fill="none" height="9" style="stroke:#C82930;stroke-width:1.5;" width="9" x="548.25" y="123"/><text fill="#000000" font-family="sans-serif" font-size="16.5" lengthAdjust="spacing" textLength="105" x="566.25" y="134.1284">String bestellid</text><line style="stroke:#A80036;stroke-width:2.25;" x1="537.75" x2="782.25" y1="143.7539" y2="143.7539"/><ellipse cx="552.75" cy="160.2539" fill="#84BE84" rx="4.5" ry="4.5" style="stroke:#038048;stroke-width:1.5;"/><text fill="#000000" font-family="sans-serif" font-size="16.5" lengthAdjust="spacing" textLength="141" x="566.25" y="166.8823">String getBestellid()</text><ellipse cx="552.75" cy="181.0078" fill="#84BE84" rx="4.5" ry="4.5" style="stroke:#038048;stroke-width:1.5;"/><text fill="#000000" font-family="sans-serif" font-size="16.5" lengthAdjust="spacing" textLength="171" x="566.25" y="187.6362">void setBestellid(String)</text><!--MD5=[72bd8eabcea0a063d69727b2880479e5]
class at.itkollegimst.muernseer.pos1makro.test2.shareddomain.events.BuchBestelltEventData--><rect codeLine="33" fill="#FEFECE" filter="url(#f1qn21xe4yjvk0)" height="134.2617" id="at.itkollegimst.muernseer.pos1makro.test2.shareddomain.events.BuchBestelltEventData" style="stroke:#A80036;stroke-width:2.25;" width="235.5" x="48.75" y="353.25"/><ellipse cx="71.25" cy="377.25" fill="#ADD1B2" rx="16.5" ry="16.5" style="stroke:#A80036;stroke-width:1.5;"/><path d="M74.25,372 Q74.5547,371.25 74.9063,370.875 Q75.2578,370.5 75.6563,370.5 Q76.3594,370.5 76.8047,370.9219 Q77.25,371.3438 77.25,372.3281 L77.25,374.6719 Q77.25,375.6563 76.8281,376.0781 Q76.4063,376.5 75.75,376.5 Q75.1641,376.5 74.7891,376.2422 Q74.4141,375.9844 74.25,375.3047 Q74.1797,374.8359 73.9219,374.5781 Q73.4531,374.0859 72.6094,373.8047 Q71.7656,373.5 70.9219,373.5 Q69.8672,373.5 68.9766,373.9219 Q68.1094,374.3438 67.4297,375.2813 Q66.75,376.2188 66.75,377.5078 L66.75,378.8906 Q66.75,380.4375 68.0156,381.4688 Q69.2813,382.5 71.5313,382.5 Q72.8672,382.5 73.8047,382.1953 Q74.3438,382.0313 74.9531,381.4922 Q75.3516,381.1875 75.5625,381.0938 Q75.7734,381 76.0313,381 Q76.5234,381 76.875,381.3984 Q77.25,381.7734 77.25,382.3125 Q77.25,382.8281 76.7344,383.4375 Q75.9844,384.3281 74.7891,384.8203 Q73.2188,385.5 71.2969,385.5 Q69.0469,385.5 67.2422,384.6094 Q65.7891,383.9063 64.7578,382.3828 Q63.75,380.8594 63.75,379.0547 L63.75,377.4141 Q63.75,375.5391 64.6406,373.8984 Q65.5547,372.2578 67.125,371.3906 Q68.7188,370.5 70.5,370.5 Q71.5781,370.5 72.5156,370.875 Q73.4531,371.25 74.25,372 Z " fill="#000000"/><text fill="#000000" font-family="sans-serif" font-size="18" lengthAdjust="spacing" textLength="187.5" x="92.25" y="384.6152">BuchBestelltEventData</text><line style="stroke:#A80036;stroke-width:2.25;" x1="50.25" x2="282.75" y1="401.25" y2="401.25"/><rect fill="none" height="9" style="stroke:#C82930;stroke-width:1.5;" width="9" x="60.75" y="413.25"/><text fill="#000000" font-family="sans-serif" font-size="16.5" lengthAdjust="spacing" textLength="105" x="78.75" y="424.3784">String bestellid</text><line style="stroke:#A80036;stroke-width:2.25;" x1="50.25" x2="282.75" y1="434.0039" y2="434.0039"/><ellipse cx="65.25" cy="450.5039" fill="#84BE84" rx="4.5" ry="4.5" style="stroke:#038048;stroke-width:1.5;"/><text fill="#000000" font-family="sans-serif" font-size="16.5" lengthAdjust="spacing" textLength="141" x="78.75" y="457.1323">String getBestellid()</text><ellipse cx="65.25" cy="471.2578" fill="#84BE84" rx="4.5" ry="4.5" style="stroke:#038048;stroke-width:1.5;"/><text fill="#000000" font-family="sans-serif" font-size="16.5" lengthAdjust="spacing" textLength="171" x="78.75" y="477.8862">void setBestellid(String)</text><!--MD5=[dfdb232e1e809ab826a16f2de6484789]
class at.itkollegimst.muernseer.pos1makro.test2.shareddomain.events.BuchGedrucktEvent--><rect codeLine="38" fill="#FEFECE" filter="url(#f1qn21xe4yjvk0)" height="134.2617" id="at.itkollegimst.muernseer.pos1makro.test2.shareddomain.events.BuchGedrucktEvent" style="stroke:#A80036;stroke-width:2.25;" width="448.5" x="336.75" y="353.25"/><ellipse cx="474.375" cy="377.25" fill="#ADD1B2" rx="16.5" ry="16.5" style="stroke:#A80036;stroke-width:1.5;"/><path d="M477.375,372 Q477.6797,371.25 478.0313,370.875 Q478.3828,370.5 478.7813,370.5 Q479.4844,370.5 479.9297,370.9219 Q480.375,371.3438 480.375,372.3281 L480.375,374.6719 Q480.375,375.6563 479.9531,376.0781 Q479.5313,376.5 478.875,376.5 Q478.2891,376.5 477.9141,376.2422 Q477.5391,375.9844 477.375,375.3047 Q477.3047,374.8359 477.0469,374.5781 Q476.5781,374.0859 475.7344,373.8047 Q474.8906,373.5 474.0469,373.5 Q472.9922,373.5 472.1016,373.9219 Q471.2344,374.3438 470.5547,375.2813 Q469.875,376.2188 469.875,377.5078 L469.875,378.8906 Q469.875,380.4375 471.1406,381.4688 Q472.4063,382.5 474.6563,382.5 Q475.9922,382.5 476.9297,382.1953 Q477.4688,382.0313 478.0781,381.4922 Q478.4766,381.1875 478.6875,381.0938 Q478.8984,381 479.1563,381 Q479.6484,381 480,381.3984 Q480.375,381.7734 480.375,382.3125 Q480.375,382.8281 479.8594,383.4375 Q479.1094,384.3281 477.9141,384.8203 Q476.3438,385.5 474.4219,385.5 Q472.1719,385.5 470.3672,384.6094 Q468.9141,383.9063 467.8828,382.3828 Q466.875,380.8594 466.875,379.0547 L466.875,377.4141 Q466.875,375.5391 467.7656,373.8984 Q468.6797,372.2578 470.25,371.3906 Q471.8438,370.5 473.625,370.5 Q474.7031,370.5 475.6406,370.875 Q476.5781,371.25 477.375,372 Z " fill="#000000"/><text fill="#000000" font-family="sans-serif" font-size="18" lengthAdjust="spacing" textLength="160.5" x="505.125" y="384.6152">BuchGedrucktEvent</text><line style="stroke:#A80036;stroke-width:2.25;" x1="338.25" x2="783.75" y1="401.25" y2="401.25"/><rect fill="none" height="9" style="stroke:#C82930;stroke-width:1.5;" width="9" x="348.75" y="413.25"/><text fill="#000000" font-family="sans-serif" font-size="16.5" lengthAdjust="spacing" textLength="357" x="366.75" y="424.3784">BuchGedrucktEventData buchGedrucktEventData</text><line style="stroke:#A80036;stroke-width:2.25;" x1="338.25" x2="783.75" y1="434.0039" y2="434.0039"/><ellipse cx="353.25" cy="450.5039" fill="#84BE84" rx="4.5" ry="4.5" style="stroke:#038048;stroke-width:1.5;"/><text fill="#000000" font-family="sans-serif" font-size="16.5" lengthAdjust="spacing" textLength="393" x="366.75" y="457.1323">BuchGedrucktEventData getBuchGedrucktEventData()</text><ellipse cx="353.25" cy="471.2578" fill="#84BE84" rx="4.5" ry="4.5" style="stroke:#038048;stroke-width:1.5;"/><text fill="#000000" font-family="sans-serif" font-size="16.5" lengthAdjust="spacing" textLength="409.5" x="366.75" y="477.8862">void setBuchBestelltEventData(BuchGedrucktEventData)</text><!--MD5=[747f3f6c2591d5e4e2bc095be25043c8]
class at.itkollegimst.muernseer.pos1makro.test2.druckerei.DruckereiApplication--><rect codeLine="11" fill="#FEFECE" filter="url(#f1qn21xe4yjvk0)" height="92.7539" id="at.itkollegimst.muernseer.pos1makro.test2.druckerei.DruckereiApplication" style="stroke:#A80036;stroke-width:2.25;" width="217.5" x="1973.25" y="84"/><ellipse cx="1995.75" cy="108" fill="#ADD1B2" rx="16.5" ry="16.5" style="stroke:#A80036;stroke-width:1.5;"/><path d="M1998.75,102.75 Q1999.0547,102 1999.4063,101.625 Q1999.7578,101.25 2000.1563,101.25 Q2000.8594,101.25 2001.3047,101.6719 Q2001.75,102.0938 2001.75,103.0781 L2001.75,105.4219 Q2001.75,106.4063 2001.3281,106.8281 Q2000.9063,107.25 2000.25,107.25 Q1999.6641,107.25 1999.2891,106.9922 Q1998.9141,106.7344 1998.75,106.0547 Q1998.6797,105.5859 1998.4219,105.3281 Q1997.9531,104.8359 1997.1094,104.5547 Q1996.2656,104.25 1995.4219,104.25 Q1994.3672,104.25 1993.4766,104.6719 Q1992.6094,105.0938 1991.9297,106.0313 Q1991.25,106.9688 1991.25,108.2578 L1991.25,109.6406 Q1991.25,111.1875 1992.5156,112.2188 Q1993.7813,113.25 1996.0313,113.25 Q1997.3672,113.25 1998.3047,112.9453 Q1998.8438,112.7813 1999.4531,112.2422 Q1999.8516,111.9375 2000.0625,111.8438 Q2000.2734,111.75 2000.5313,111.75 Q2001.0234,111.75 2001.375,112.1484 Q2001.75,112.5234 2001.75,113.0625 Q2001.75,113.5781 2001.2344,114.1875 Q2000.4844,115.0781 1999.2891,115.5703 Q1997.7188,116.25 1995.7969,116.25 Q1993.5469,116.25 1991.7422,115.3594 Q1990.2891,114.6563 1989.2578,113.1328 Q1988.25,111.6094 1988.25,109.8047 L1988.25,108.1641 Q1988.25,106.2891 1989.1406,104.6484 Q1990.0547,103.0078 1991.625,102.1406 Q1993.2188,101.25 1995,101.25 Q1996.0781,101.25 1997.0156,101.625 Q1997.9531,102 1998.75,102.75 Z " fill="#000000"/><text fill="#000000" font-family="sans-serif" font-size="18" lengthAdjust="spacing" textLength="169.5" x="2016.75" y="115.3652">DruckereiApplication</text><line style="stroke:#A80036;stroke-width:2.25;" x1="1974.75" x2="2189.25" y1="132" y2="132"/><line style="stroke:#A80036;stroke-width:2.25;" x1="1974.75" x2="2189.25" y1="144" y2="144"/><ellipse cx="1989.75" cy="160.5" fill="#84BE84" rx="4.5" ry="4.5" style="stroke:#038048;stroke-width:1.5;"/><text fill="#000000" font-family="sans-serif" font-size="16.5" lengthAdjust="spacing" text-decoration="underline" textLength="130.5" x="2003.25" y="167.1284">void main(String[])</text><!--MD5=[a3a53d88e5e123bbf19885924b1d0968]
class at.itkollegimst.muernseer.pos1makro.test2.druckerei.application.internal.outboundservices.BuchGedrucktEventPublisherService--><rect codeLine="14" fill="#FEFECE" filter="url(#f1qn21xe4yjvk0)" height="113.5078" id="at.itkollegimst.muernseer.pos1makro.test2.druckerei.application.internal.outboundservices.BuchGedrucktEventPublisherService" style="stroke:#A80036;stroke-width:2.25;" width="421.5" x="2691.75" y="73.5"/><ellipse cx="2747.325" cy="97.5" fill="#ADD1B2" rx="16.5" ry="16.5" style="stroke:#A80036;stroke-width:1.5;"/><path d="M2750.325,92.25 Q2750.6297,91.5 2750.9813,91.125 Q2751.3328,90.75 2751.7313,90.75 Q2752.4344,90.75 2752.8797,91.1719 Q2753.325,91.5938 2753.325,92.5781 L2753.325,94.9219 Q2753.325,95.9063 2752.9031,96.3281 Q2752.4813,96.75 2751.825,96.75 Q2751.2391,96.75 2750.8641,96.4922 Q2750.4891,96.2344 2750.325,95.5547 Q2750.2547,95.0859 2749.9969,94.8281 Q2749.5281,94.3359 2748.6844,94.0547 Q2747.8406,93.75 2746.9969,93.75 Q2745.9422,93.75 2745.0516,94.1719 Q2744.1844,94.5938 2743.5047,95.5313 Q2742.825,96.4688 2742.825,97.7578 L2742.825,99.1406 Q2742.825,100.6875 2744.0906,101.7188 Q2745.3563,102.75 2747.6063,102.75 Q2748.9422,102.75 2749.8797,102.4453 Q2750.4188,102.2813 2751.0281,101.7422 Q2751.4266,101.4375 2751.6375,101.3438 Q2751.8484,101.25 2752.1063,101.25 Q2752.5984,101.25 2752.95,101.6484 Q2753.325,102.0234 2753.325,102.5625 Q2753.325,103.0781 2752.8094,103.6875 Q2752.0594,104.5781 2750.8641,105.0703 Q2749.2938,105.75 2747.3719,105.75 Q2745.1219,105.75 2743.3172,104.8594 Q2741.8641,104.1563 2740.8328,102.6328 Q2739.825,101.1094 2739.825,99.3047 L2739.825,97.6641 Q2739.825,95.7891 2740.7156,94.1484 Q2741.6297,92.5078 2743.2,91.6406 Q2744.7938,90.75 2746.575,90.75 Q2747.6531,90.75 2748.5906,91.125 Q2749.5281,91.5 2750.325,92.25 Z " fill="#000000"/><text fill="#000000" font-family="sans-serif" font-size="18" lengthAdjust="spacing" textLength="300" x="2775.675" y="104.8652">BuchGedrucktEventPublisherService</text><line style="stroke:#A80036;stroke-width:2.25;" x1="2693.25" x2="3111.75" y1="121.5" y2="121.5"/><rect fill="none" height="9" style="stroke:#C82930;stroke-width:1.5;" width="9" x="2703.75" y="133.5"/><text fill="#000000" font-family="sans-serif" font-size="16.5" lengthAdjust="spacing" textLength="369" x="2721.75" y="144.6284">BuchBestelltEventBinding buchBestelltEventBinding</text><line style="stroke:#A80036;stroke-width:2.25;" x1="2693.25" x2="3111.75" y1="154.2539" y2="154.2539"/><ellipse cx="2708.25" cy="170.7539" fill="#84BE84" rx="4.5" ry="4.5" style="stroke:#038048;stroke-width:1.5;"/><text fill="#000000" font-family="sans-serif" font-size="16.5" lengthAdjust="spacing" textLength="382.5" x="2721.75" y="177.3823">void handleBuchGedrucktEvent(BuchGedrucktEvent)</text><!--MD5=[3a589cd3b16790c487197f83adfc2a49]
class at.itkollegimst.muernseer.pos1makro.test2.druckerei.interfaces.events.BuchBestelltEventHandler--><rect codeLine="18" fill="#FEFECE" filter="url(#f1qn21xe4yjvk0)" height="113.5078" id="at.itkollegimst.muernseer.pos1makro.test2.druckerei.interfaces.events.BuchBestelltEventHandler" style="stroke:#A80036;stroke-width:2.25;" width="453" x="3592.5" y="73.5"/><ellipse cx="3705.375" cy="97.5" fill="#ADD1B2" rx="16.5" ry="16.5" style="stroke:#A80036;stroke-width:1.5;"/><path d="M3708.375,92.25 Q3708.6797,91.5 3709.0313,91.125 Q3709.3828,90.75 3709.7813,90.75 Q3710.4844,90.75 3710.9297,91.1719 Q3711.375,91.5938 3711.375,92.5781 L3711.375,94.9219 Q3711.375,95.9063 3710.9531,96.3281 Q3710.5313,96.75 3709.875,96.75 Q3709.2891,96.75 3708.9141,96.4922 Q3708.5391,96.2344 3708.375,95.5547 Q3708.3047,95.0859 3708.0469,94.8281 Q3707.5781,94.3359 3706.7344,94.0547 Q3705.8906,93.75 3705.0469,93.75 Q3703.9922,93.75 3703.1016,94.1719 Q3702.2344,94.5938 3701.5547,95.5313 Q3700.875,96.4688 3700.875,97.7578 L3700.875,99.1406 Q3700.875,100.6875 3702.1406,101.7188 Q3703.4063,102.75 3705.6563,102.75 Q3706.9922,102.75 3707.9297,102.4453 Q3708.4688,102.2813 3709.0781,101.7422 Q3709.4766,101.4375 3709.6875,101.3438 Q3709.8984,101.25 3710.1563,101.25 Q3710.6484,101.25 3711,101.6484 Q3711.375,102.0234 3711.375,102.5625 Q3711.375,103.0781 3710.8594,103.6875 Q3710.1094,104.5781 3708.9141,105.0703 Q3707.3438,105.75 3705.4219,105.75 Q3703.1719,105.75 3701.3672,104.8594 Q3699.9141,104.1563 3698.8828,102.6328 Q3697.875,101.1094 3697.875,99.3047 L3697.875,97.6641 Q3697.875,95.7891 3698.7656,94.1484 Q3699.6797,92.5078 3701.25,91.6406 Q3702.8438,90.75 3704.625,90.75 Q3705.7031,90.75 3706.6406,91.125 Q3707.5781,91.5 3708.375,92.25 Z " fill="#000000"/><text fill="#000000" font-family="sans-serif" font-size="18" lengthAdjust="spacing" textLength="214.5" x="3736.125" y="104.8652">BuchBestelltEventHandler</text><line style="stroke:#A80036;stroke-width:2.25;" x1="3594" x2="4044" y1="121.5" y2="121.5"/><rect fill="none" height="9" style="stroke:#C82930;stroke-width:1.5;" width="9" x="3604.5" y="133.5"/><text fill="#000000" font-family="sans-serif" font-size="16.5" lengthAdjust="spacing" textLength="414" x="3622.5" y="144.6284">BuchDruckCommandService buchDruckCommandService</text><line style="stroke:#A80036;stroke-width:2.25;" x1="3594" x2="4044" y1="154.2539" y2="154.2539"/><ellipse cx="3609" cy="170.7539" fill="#84BE84" rx="4.5" ry="4.5" style="stroke:#038048;stroke-width:1.5;"/><text fill="#000000" font-family="sans-serif" font-size="16.5" lengthAdjust="spacing" textLength="262.5" x="3622.5" y="177.3823">void reciveEvent(BuchBestelltEvent)</text><!--MD5=[a9fdca55141940f813c0457f9e59bbd7]
class at.itkollegimst.muernseer.pos1makro.test2.druckerei.application.internal.commandservices.BuchDruckCommandService--><rect codeLine="22" fill="#FEFECE" filter="url(#f1qn21xe4yjvk0)" height="113.5078" id="at.itkollegimst.muernseer.pos1makro.test2.druckerei.application.internal.commandservices.BuchDruckCommandService" style="stroke:#A80036;stroke-width:2.25;" width="318" x="4576.5" y="73.5"/><ellipse cx="4613.175" cy="97.5" fill="#ADD1B2" rx="16.5" ry="16.5" style="stroke:#A80036;stroke-width:1.5;"/><path d="M4616.175,92.25 Q4616.4797,91.5 4616.8312,91.125 Q4617.1828,90.75 4617.5812,90.75 Q4618.2844,90.75 4618.7297,91.1719 Q4619.175,91.5938 4619.175,92.5781 L4619.175,94.9219 Q4619.175,95.9063 4618.7531,96.3281 Q4618.3312,96.75 4617.675,96.75 Q4617.0891,96.75 4616.7141,96.4922 Q4616.3391,96.2344 4616.175,95.5547 Q4616.1047,95.0859 4615.8469,94.8281 Q4615.3781,94.3359 4614.5344,94.0547 Q4613.6906,93.75 4612.8469,93.75 Q4611.7922,93.75 4610.9016,94.1719 Q4610.0344,94.5938 4609.3547,95.5313 Q4608.675,96.4688 4608.675,97.7578 L4608.675,99.1406 Q4608.675,100.6875 4609.9406,101.7188 Q4611.2062,102.75 4613.4562,102.75 Q4614.7922,102.75 4615.7297,102.4453 Q4616.2687,102.2813 4616.8781,101.7422 Q4617.2766,101.4375 4617.4875,101.3438 Q4617.6984,101.25 4617.9562,101.25 Q4618.4484,101.25 4618.8,101.6484 Q4619.175,102.0234 4619.175,102.5625 Q4619.175,103.0781 4618.6594,103.6875 Q4617.9094,104.5781 4616.7141,105.0703 Q4615.1437,105.75 4613.2219,105.75 Q4610.9719,105.75 4609.1672,104.8594 Q4607.7141,104.1563 4606.6828,102.6328 Q4605.675,101.1094 4605.675,99.3047 L4605.675,97.6641 Q4605.675,95.7891 4606.5656,94.1484 Q4607.4797,92.5078 4609.05,91.6406 Q4610.6437,90.75 4612.425,90.75 Q4613.5031,90.75 4614.4406,91.125 Q4615.3781,91.5 4616.175,92.25 Z " fill="#000000"/><text fill="#000000" font-family="sans-serif" font-size="18" lengthAdjust="spacing" textLength="238.5" x="4637.325" y="104.8652">BuchDruckCommandService</text><line style="stroke:#A80036;stroke-width:2.25;" x1="4578" x2="4893" y1="121.5" y2="121.5"/><rect fill="none" height="9" style="stroke:#C82930;stroke-width:1.5;" width="9" x="4588.5" y="133.5"/><text fill="#000000" font-family="sans-serif" font-size="16.5" lengthAdjust="spacing" textLength="279" x="4606.5" y="144.6284">BestellIdRepository bestellIdRepository</text><line style="stroke:#A80036;stroke-width:2.25;" x1="4578" x2="4893" y1="154.2539" y2="154.2539"/><ellipse cx="4593" cy="170.7539" fill="#84BE84" rx="4.5" ry="4.5" style="stroke:#038048;stroke-width:1.5;"/><text fill="#000000" font-family="sans-serif" font-size="16.5" lengthAdjust="spacing" textLength="184.5" x="4606.5" y="177.3823">void buchDrucken(String)</text><!--MD5=[aa057779c4b91e4a5164b39e0fee2cea]
class at.itkollegimst.muernseer.pos1makro.test2.druckerei.infastructure.repositories.jpa.BestellIdRepository--><rect codeLine="26" fill="#FEFECE" filter="url(#f1qn21xe4yjvk0)" height="72" id="at.itkollegimst.muernseer.pos1makro.test2.druckerei.infastructure.repositories.jpa.BestellIdRepository" style="stroke:#A80036;stroke-width:2.25;" width="208.5" x="5384.25" y="384.75"/><ellipse cx="5406.75" cy="408.75" fill="#B4A7E5" rx="16.5" ry="16.5" style="stroke:#A80036;stroke-width:1.5;"/><path d="M5408.25,404.25 L5408.25,413.25 L5411.25,413.25 L5411.9766,413.25 L5412.75,414.1875 L5412.75,414.75 L5412.75,415.3125 L5411.9766,416.25 L5411.25,416.25 L5402.25,416.25 L5401.5234,416.25 L5400.75,415.3125 L5400.75,414.75 L5400.75,414.1875 L5401.5234,413.25 L5402.25,413.25 L5405.25,413.25 L5405.25,404.25 L5402.25,404.25 L5401.5234,404.25 L5400.75,403.3125 L5400.75,402.75 L5400.75,402.1875 L5401.5234,401.25 L5402.25,401.25 L5411.25,401.25 L5411.9766,401.25 L5412.75,402.1875 L5412.75,402.75 L5412.75,403.3125 L5411.9766,404.25 L5411.25,404.25 L5408.25,404.25 Z " fill="#000000"/><text fill="#000000" font-family="sans-serif" font-size="18" font-style="italic" lengthAdjust="spacing" textLength="160.5" x="5427.75" y="416.1152">BestellIdRepository</text><line style="stroke:#A80036;stroke-width:2.25;" x1="5385.75" x2="5591.25" y1="432.75" y2="432.75"/><line style="stroke:#A80036;stroke-width:2.25;" x1="5385.75" x2="5591.25" y1="444.75" y2="444.75"/><!--MD5=[e1104db9deeca99272ce8a78f6ce6ba8]
class at.itkollegimst.muernseer.pos1makro.test2.druckerei.domain.model.aggregates.BestellId--><rect codeLine="43" fill="#FEFECE" filter="url(#f1qn21xe4yjvk0)" height="217.2773" id="at.itkollegimst.muernseer.pos1makro.test2.druckerei.domain.model.aggregates.BestellId" style="stroke:#A80036;stroke-width:2.25;" width="252" x="6234" y="312"/><ellipse cx="6317.625" cy="336" fill="#ADD1B2" rx="16.5" ry="16.5" style="stroke:#A80036;stroke-width:1.5;"/><path d="M6320.625,330.75 Q6320.9297,330 6321.2813,329.625 Q6321.6328,329.25 6322.0313,329.25 Q6322.7344,329.25 6323.1797,329.6719 Q6323.625,330.0938 6323.625,331.0781 L6323.625,333.4219 Q6323.625,334.4063 6323.2031,334.8281 Q6322.7813,335.25 6322.125,335.25 Q6321.5391,335.25 6321.1641,334.9922 Q6320.7891,334.7344 6320.625,334.0547 Q6320.5547,333.5859 6320.2969,333.3281 Q6319.8281,332.8359 6318.9844,332.5547 Q6318.1406,332.25 6317.2969,332.25 Q6316.2422,332.25 6315.3516,332.6719 Q6314.4844,333.0938 6313.8047,334.0313 Q6313.125,334.9688 6313.125,336.2578 L6313.125,337.6406 Q6313.125,339.1875 6314.3906,340.2188 Q6315.6563,341.25 6317.9063,341.25 Q6319.2422,341.25 6320.1797,340.9453 Q6320.7188,340.7813 6321.3281,340.2422 Q6321.7266,339.9375 6321.9375,339.8438 Q6322.1484,339.75 6322.4063,339.75 Q6322.8984,339.75 6323.25,340.1484 Q6323.625,340.5234 6323.625,341.0625 Q6323.625,341.5781 6323.1094,342.1875 Q6322.3594,343.0781 6321.1641,343.5703 Q6319.5938,344.25 6317.6719,344.25 Q6315.4219,344.25 6313.6172,343.3594 Q6312.1641,342.6563 6311.1328,341.1328 Q6310.125,339.6094 6310.125,337.8047 L6310.125,336.1641 Q6310.125,334.2891 6311.0156,332.6484 Q6311.9297,331.0078 6313.5,330.1406 Q6315.0938,329.25 6316.875,329.25 Q6317.9531,329.25 6318.8906,329.625 Q6319.8281,330 6320.625,330.75 Z " fill="#000000"/><text fill="#000000" font-family="sans-serif" font-size="18" lengthAdjust="spacing" textLength="72" x="6348.375" y="343.3652">BestellId</text><line style="stroke:#A80036;stroke-width:2.25;" x1="6235.5" x2="6484.5" y1="360" y2="360"/><rect fill="none" height="9" style="stroke:#C82930;stroke-width:1.5;" width="9" x="6246" y="372"/><text fill="#000000" font-family="sans-serif" font-size="16.5" lengthAdjust="spacing" textLength="52.5" x="6264" y="383.1284">Long id</text><rect fill="none" height="9" style="stroke:#C82930;stroke-width:1.5;" width="9" x="6246" y="392.7539"/><text fill="#000000" font-family="sans-serif" font-size="16.5" lengthAdjust="spacing" textLength="81" x="6264" y="403.8823">String wert</text><line style="stroke:#A80036;stroke-width:2.25;" x1="6235.5" x2="6484.5" y1="413.5078" y2="413.5078"/><ellipse cx="6250.5" cy="430.0078" fill="#84BE84" rx="4.5" ry="4.5" style="stroke:#038048;stroke-width:1.5;"/><text fill="#000000" font-family="sans-serif" font-size="16.5" lengthAdjust="spacing" textLength="213" x="6264" y="436.6362">void addDomainEvent(Object)</text><ellipse cx="6250.5" cy="450.7617" fill="#84BE84" rx="4.5" ry="4.5" style="stroke:#038048;stroke-width:1.5;"/><text fill="#000000" font-family="sans-serif" font-size="16.5" lengthAdjust="spacing" textLength="87" x="6264" y="457.3901">Long getId()</text><ellipse cx="6250.5" cy="471.5156" fill="#84BE84" rx="4.5" ry="4.5" style="stroke:#038048;stroke-width:1.5;"/><text fill="#000000" font-family="sans-serif" font-size="16.5" lengthAdjust="spacing" textLength="117" x="6264" y="478.144">void setId(Long)</text><ellipse cx="6250.5" cy="492.2695" fill="#84BE84" rx="4.5" ry="4.5" style="stroke:#038048;stroke-width:1.5;"/><text fill="#000000" font-family="sans-serif" font-size="16.5" lengthAdjust="spacing" textLength="115.5" x="6264" y="498.8979">String getWert()</text><ellipse cx="6250.5" cy="513.0234" fill="#84BE84" rx="4.5" ry="4.5" style="stroke:#038048;stroke-width:1.5;"/><text fill="#000000" font-family="sans-serif" font-size="16.5" lengthAdjust="spacing" textLength="145.5" x="6264" y="519.6519">void setWert(String)</text><!--MD5=[9066e956ebe5b62a90d194ed6cf4a894]
class org.springframework.data.jpa.repository.JpaRepository--><rect fill="#FEFECE" filter="url(#f1qn21xe4yjvk0)" height="72" id="org.springframework.data.jpa.repository.JpaRepository" style="stroke:#A80036;stroke-width:2.25;" width="166.5" x="5405.25" y="94.5"/><ellipse cx="5427.75" cy="118.5" fill="#ADD1B2" rx="16.5" ry="16.5" style="stroke:#A80036;stroke-width:1.5;"/><path d="M5430.75,113.25 Q5431.0547,112.5 5431.4063,112.125 Q5431.7578,111.75 5432.1563,111.75 Q5432.8594,111.75 5433.3047,112.1719 Q5433.75,112.5938 5433.75,113.5781 L5433.75,115.9219 Q5433.75,116.9063 5433.3281,117.3281 Q5432.9063,117.75 5432.25,117.75 Q5431.6641,117.75 5431.2891,117.4922 Q5430.9141,117.2344 5430.75,116.5547 Q5430.6797,116.0859 5430.4219,115.8281 Q5429.9531,115.3359 5429.1094,115.0547 Q5428.2656,114.75 5427.4219,114.75 Q5426.3672,114.75 5425.4766,115.1719 Q5424.6094,115.5938 5423.9297,116.5313 Q5423.25,117.4688 5423.25,118.7578 L5423.25,120.1406 Q5423.25,121.6875 5424.5156,122.7188 Q5425.7813,123.75 5428.0313,123.75 Q5429.3672,123.75 5430.3047,123.4453 Q5430.8438,123.2813 5431.4531,122.7422 Q5431.8516,122.4375 5432.0625,122.3438 Q5432.2734,122.25 5432.5313,122.25 Q5433.0234,122.25 5433.375,122.6484 Q5433.75,123.0234 5433.75,123.5625 Q5433.75,124.0781 5433.2344,124.6875 Q5432.4844,125.5781 5431.2891,126.0703 Q5429.7188,126.75 5427.7969,126.75 Q5425.5469,126.75 5423.7422,125.8594 Q5422.2891,125.1563 5421.2578,123.6328 Q5420.25,122.1094 5420.25,120.3047 L5420.25,118.6641 Q5420.25,116.7891 5421.1406,115.1484 Q5422.0547,113.5078 5423.625,112.6406 Q5425.2188,111.75 5427,111.75 Q5428.0781,111.75 5429.0156,112.125 Q5429.9531,112.5 5430.75,113.25 Z " fill="#000000"/><text fill="#000000" font-family="sans-serif" font-size="18" lengthAdjust="spacing" textLength="118.5" x="5448.75" y="125.8652">JpaRepository</text><line style="stroke:#A80036;stroke-width:2.25;" x1="5406.75" x2="5570.25" y1="142.5" y2="142.5"/><line style="stroke:#A80036;stroke-width:2.25;" x1="5406.75" x2="5570.25" y1="154.5" y2="154.5"/><!--MD5=[0702bcce7991b6dff02b9781f9294d8e]
class org.springframework.data.domain.AbstractAggregateRoot--><rect fill="#FEFECE" filter="url(#f1qn21xe4yjvk0)" height="72" id="org.springframework.data.domain.AbstractAggregateRoot" style="stroke:#A80036;stroke-width:2.25;" width="237" x="6241.5" y="94.5"/><ellipse cx="6264" cy="118.5" fill="#ADD1B2" rx="16.5" ry="16.5" style="stroke:#A80036;stroke-width:1.5;"/><path d="M6267,113.25 Q6267.3047,112.5 6267.6563,112.125 Q6268.0078,111.75 6268.4063,111.75 Q6269.1094,111.75 6269.5547,112.1719 Q6270,112.5938 6270,113.5781 L6270,115.9219 Q6270,116.9063 6269.5781,117.3281 Q6269.1563,117.75 6268.5,117.75 Q6267.9141,117.75 6267.5391,117.4922 Q6267.1641,117.2344 6267,116.5547 Q6266.9297,116.0859 6266.6719,115.8281 Q6266.2031,115.3359 6265.3594,115.0547 Q6264.5156,114.75 6263.6719,114.75 Q6262.6172,114.75 6261.7266,115.1719 Q6260.8594,115.5938 6260.1797,116.5313 Q6259.5,117.4688 6259.5,118.7578 L6259.5,120.1406 Q6259.5,121.6875 6260.7656,122.7188 Q6262.0313,123.75 6264.2813,123.75 Q6265.6172,123.75 6266.5547,123.4453 Q6267.0938,123.2813 6267.7031,122.7422 Q6268.1016,122.4375 6268.3125,122.3438 Q6268.5234,122.25 6268.7813,122.25 Q6269.2734,122.25 6269.625,122.6484 Q6270,123.0234 6270,123.5625 Q6270,124.0781 6269.4844,124.6875 Q6268.7344,125.5781 6267.5391,126.0703 Q6265.9688,126.75 6264.0469,126.75 Q6261.7969,126.75 6259.9922,125.8594 Q6258.5391,125.1563 6257.5078,123.6328 Q6256.5,122.1094 6256.5,120.3047 L6256.5,118.6641 Q6256.5,116.7891 6257.3906,115.1484 Q6258.3047,113.5078 6259.875,112.6406 Q6261.4688,111.75 6263.25,111.75 Q6264.3281,111.75 6265.2656,112.125 Q6266.2031,112.5 6267,113.25 Z " fill="#000000"/><text fill="#000000" font-family="sans-serif" font-size="18" lengthAdjust="spacing" textLength="189" x="6285" y="125.8652">AbstractAggregateRoot</text><line style="stroke:#A80036;stroke-width:2.25;" x1="6243" x2="6477" y1="142.5" y2="142.5"/><line style="stroke:#A80036;stroke-width:2.25;" x1="6243" x2="6477" y1="154.5" y2="154.5"/><!--MD5=[a7c5dc216ab294312f2eab79ac0cd91c]
reverse link org.springframework.data.jpa.repository.JpaRepository to at.itkollegimst.muernseer.pos1makro.test2.druckerei.infastructure.repositories.jpa.BestellIdRepository--><path codeLine="54" d="M5488.5,196.755 C5488.5,254.91 5488.5,338.04 5488.5,384.48 " fill="none" id="org.springframework.data.jpa.repository.JpaRepository-backto-at.itkollegimst.muernseer.pos1makro.test2.druckerei.infastructure.repositories.jpa.BestellIdRepository" style="stroke:#A80036;stroke-width:1.5;"/><polygon fill="none" points="5478,196.65,5488.5,166.65,5499,196.65,5478,196.65" style="stroke:#A80036;stroke-width:1.5;"/><!--MD5=[09c324b3c47878f087b610fbdbe7c017]
reverse link org.springframework.data.domain.AbstractAggregateRoot to at.itkollegimst.muernseer.pos1makro.test2.druckerei.domain.model.aggregates.BestellId--><path codeLine="55" d="M6360,196.65 C6360,230.49 6360,272.82 6360,311.445 " fill="none" id="org.springframework.data.domain.AbstractAggregateRoot-backto-at.itkollegimst.muernseer.pos1makro.test2.druckerei.domain.model.aggregates.BestellId" style="stroke:#A80036;stroke-width:1.5;"/><polygon fill="none" points="6349.5,196.65,6360,166.65,6370.5,196.65,6349.5,196.65" style="stroke:#A80036;stroke-width:1.5;"/><!--MD5=[b8cbe9e9ac747843e67588e576a3578e]
link at.itkollegimst.muernseer.pos1makro.test2.shareddomain.events.BuchBestelltEvent to at.itkollegimst.muernseer.pos1makro.test2.shareddomain.events.BuchGedrucktEventData--><!--MD5=[09edc503558bd7148c0064ef603f1026]
link at.itkollegimst.muernseer.pos1makro.test2.shareddomain.events.BuchBestelltEvent to at.itkollegimst.muernseer.pos1makro.test2.shareddomain.events.BuchBestelltEventData--><!--MD5=[7b1d8283f41cdc8b2b15c3967461e264]
link at.itkollegimst.muernseer.pos1makro.test2.shareddomain.events.BuchBestelltEventData to at.itkollegimst.muernseer.pos1makro.test2.shareddomain.events.BuchGedrucktEvent--><!--MD5=[ea3e4e81c6fccb2e74b817385dd260dd]
@startuml
interface at.itkollegimst.muernseer.pos1makro.test2.druckerei.infastructure.brokers.rabbitmq.BuchBestelltEventBinding {
~ String BESTELLUNG
~ SubscribableChannel buchBestellung()
~ MessageChannel buchDruck()
}
class at.itkollegimst.muernseer.pos1makro.test2.shareddomain.events.BuchBestelltEvent {
- BuchBestelltEventData buchBestelltEventData
+ BuchBestelltEventData getBuchBestelltEventData()
+ void setBuchBestelltEventData(BuchBestelltEventData)
}
class at.itkollegimst.muernseer.pos1makro.test2.druckerei.DruckereiApplication {
+ {static} void main(String[])
}
class at.itkollegimst.muernseer.pos1makro.test2.druckerei.application.internal.outboundservices.BuchGedrucktEventPublisherService {
- BuchBestelltEventBinding buchBestelltEventBinding
+ void handleBuchGedrucktEvent(BuchGedrucktEvent)
}
class at.itkollegimst.muernseer.pos1makro.test2.druckerei.interfaces.events.BuchBestelltEventHandler {
- BuchDruckCommandService buchDruckCommandService
+ void reciveEvent(BuchBestelltEvent)
}
class at.itkollegimst.muernseer.pos1makro.test2.druckerei.application.internal.commandservices.BuchDruckCommandService {
- BestellIdRepository bestellIdRepository
+ void buchDrucken(String)
}
interface at.itkollegimst.muernseer.pos1makro.test2.druckerei.infastructure.repositories.jpa.BestellIdRepository {
}
class at.itkollegimst.muernseer.pos1makro.test2.shareddomain.events.BuchGedrucktEventData {
- String bestellid
+ String getBestellid()
+ void setBestellid(String)
}
class at.itkollegimst.muernseer.pos1makro.test2.shareddomain.events.BuchBestelltEventData {
- String bestellid
+ String getBestellid()
+ void setBestellid(String)
}
class at.itkollegimst.muernseer.pos1makro.test2.shareddomain.events.BuchGedrucktEvent {
- BuchGedrucktEventData buchGedrucktEventData
+ BuchGedrucktEventData getBuchGedrucktEventData()
+ void setBuchBestelltEventData(BuchGedrucktEventData)
}
class at.itkollegimst.muernseer.pos1makro.test2.druckerei.domain.model.aggregates.BestellId {
- Long id
- String wert
+ void addDomainEvent(Object)
+ Long getId()
+ void setId(Long)
+ String getWert()
+ void setWert(String)
}


org.springframework.data.jpa.repository.JpaRepository <|- - at.itkollegimst.muernseer.pos1makro.test2.druckerei.infastructure.repositories.jpa.BestellIdRepository
org.springframework.data.domain.AbstractAggregateRoot <|- - at.itkollegimst.muernseer.pos1makro.test2.druckerei.domain.model.aggregates.BestellId
@enduml

PlantUML version 1.2021.5(Sun Apr 25 13:20:28 CEST 2021)
(GPL source distribution)
Java Runtime: OpenJDK Runtime Environment
JVM: OpenJDK 64-Bit Server VM
Default Encoding: Cp1252
Language: de
Country: AT
--></g></svg>